Skip to content
Why GitHub? 
Enterprise
Explore 
Marketplace
Pricing 
Search

Sign in
Sign up
250fer-ppj/ppj-labosi
 Code Issues 0 Pull requests 0 Projects 0 Security Insights
Join GitHub today
GitHub is home to over 40 million developers working together to host and review code, manage projects, and build software together.

ppj-labosi/res/lab2/simplePpjLang_err.out
@ibudiselic ibudiselic lab2 medjukorak
33fd3b6 on 30 Oct 2011
57 lines (56 sloc)  1.45 KB
  
<prijevodna_jedinica>
 <prijevodna_jedinica>
  <vanjska_deklaracija>
   <deklaracija>
    <specifikatori_deklaracije>
     <specifikator_tipa>
      KR_INT 1 int
    <lista_init_deklaratora>
     <init_deklarator>
      <izravni_deklarator>
       IDN 1 x
      OP_PRIDRUZI 1 =
      <inicijalizator>
       <izraz_pridruzivanja>
        <log_ili_izraz>
         <log_i_izraz>
          <bin_ili_izraz>
           <bin_xili_izraz>
            <bin_i_izraz>
             <jednakosni_izraz>
              <odnosni_izraz>
               <aditivni_izraz>
                <multiplikativni_izraz>
                 <cast_izraz>
                  <unarni_izraz>
                   <postfiks_izraz>
                    <primarni_izraz>
                     BROJ 1 3
    TOCKAZAREZ 1 ;
 <vanjska_deklaracija>
  <deklaracija>
   <specifikatori_deklaracije>
    <specifikator_tipa>
     KR_INT 2 int
   <lista_init_deklaratora>
    <init_deklarator>
     <izravni_deklarator>
      IDN 2 y
     OP_PRIDRUZI 2 =
     <inicijalizator>
      <izraz_pridruzivanja>
       <log_ili_izraz>
        <log_i_izraz>
         <bin_ili_izraz>
          <bin_xili_izraz>
           <bin_i_izraz>
            <jednakosni_izraz>
             <odnosni_izraz>
              <aditivni_izraz>
               <multiplikativni_izraz>
                <cast_izraz>
                 <unarni_izraz>
                  <postfiks_izraz>
                   <primarni_izraz>
                    BROJ 2 2
   TOCKAZAREZ 2 ;
© 2019 GitHub, Inc.
Terms
Privacy
Security
Status
Help
Contact GitHub
Pricing
API
Training
Blog
About
